{
    "charts": [],
    "content": "[{\"type\":\"onboarding\",\"data\":{\"onboarding_name\":\"Website\",\"col\":12}},{\"type\":\"header\",\"data\":{\"text\":\"<span class=\\\"h4\\\"><b>Your Shortcuts</b></span>\",\"col\":12}},{\"type\":\"shortcut\",\"data\":{\"shortcut_name\":\"Blog Post\",\"col\":3}},{\"type\":\"shortcut\",\"data\":{\"shortcut_name\":\"Blogger\",\"col\":3}},{\"type\":\"shortcut\",\"data\":{\"shortcut_name\":\"Web Page\",\"col\":3}},{\"type\":\"shortcut\",\"data\":{\"shortcut_name\":\"Web Form\",\"col\":3}},{\"type\":\"shortcut\",\"data\":{\"shortcut_name\":\"Website Settings\",\"col\":3}},{\"type\":\"spacer\",\"data\":{\"col\":12}},{\"type\":\"header\",\"data\":{\"text\":\"<span class=\\\"h4\\\"><b>Reports & Masters</b></span>\",\"col\":12}},{\"type\":\"card\",\"data\":{\"card_name\":\"Setup\",\"col\":4}},{\"type\":\"card\",\"data\":{\"card_name\":\"Blog\",\"col\":4}},{\"type\":\"card\",\"data\":{\"card_name\":\"Web Site\",\"col\":4}},{\"type\":\"card\",\"data\":{\"card_name\":\"Portal\",\"col\":4}},{\"type\":\"card\",\"data\":{\"card_name\":\"Knowledge Base\",\"col\":4}}]",
    "creation": "2020-03-02 14:13:51.089373",
    "docstatus": 0,
    "doctype": "Workspace",
    "for_user": "",
    "hide_custom": 0,
    "icon": "website",
    "idx": 0,
    "label": "Website",
    "links": [
     {
      "hidden": 0,
      "icon": "setting",
      "is_query_report": 0,
      "label": "Setup",
      "link_count": 0,
      "onboard": 0,
      "type": "Card Break"
     },
     {
      "dependencies": "",
      "hidden": 0,
      "is_query_report": 0,
      "label": "Website Settings",
      "link_count": 0,
      "link_to": "Website Settings",
      "link_type": "DocType",
      "onboard": 1,
      "type": "Link"
     },
     {
      "dependencies": "",
      "hidden": 0,
      "is_query_report": 0,
      "label": "Website Theme",
      "link_count": 0,
      "link_to": "Website Theme",
      "link_type": "DocType",
      "onboard": 1,
      "type": "Link"
     },
     {
      "dependencies": "",
      "hidden": 0,
      "is_query_report": 0,
      "label": "Website Script",
      "link_count": 0,
      "link_to": "Website Script",
      "link_type": "DocType",
      "onboard": 0,
      "type": "Link"
     },
     {
      "dependencies": "",
      "hidden": 0,
      "is_query_report": 0,
      "label": "About Us Settings",
      "link_count": 0,
      "link_to": "About Us Settings",
      "link_type": "DocType",
      "onboard": 0,
      "type": "Link"
     },
     {
      "dependencies": "",
      "hidden": 0,
      "is_query_report": 0,
      "label": "Contact Us Settings",
      "link_count": 0,
      "link_to": "Contact Us Settings",
      "link_type": "DocType",
      "onboard": 0,
      "type": "Link"
     },
     {
      "hidden": 0,
      "icon": "",
      "is_query_report": 0,
      "label": "Blog",
      "link_count": 0,
      "onboard": 0,
      "type": "Card Break"
     },
     {
      "dependencies": "",
      "hidden": 0,
      "is_query_report": 0,
      "label": "Blog Post",
      "link_count": 0,
      "link_to": "Blog Post",
      "link_type": "DocType",
      "onboard": 1,
      "type": "Link"
     },
     {
      "dependencies": "",
      "hidden": 0,
      "is_query_report": 0,
      "label": "Blogger",
      "link_count": 0,
      "link_to": "Blogger",
      "link_type": "DocType",
      "onboard": 0,
      "type": "Link"
     },
     {
      "dependencies": "",
      "hidden": 0,
      "is_query_report": 0,
      "label": "Blog Category",
      "link_count": 0,
      "link_to": "Blog Category",
      "link_type": "DocType",
      "onboard": 0,
      "type": "Link"
     },
     {
      "hidden": 0,
      "icon": "website",
      "is_query_report": 0,
      "label": "Web Site",
      "link_count": 0,
      "onboard": 0,
      "type": "Card Break"
     },
     {
      "dependencies": "",
      "hidden": 0,
      "is_query_report": 0,
      "label": "Web Page",
      "link_count": 0,
      "link_to": "Web Page",
      "link_type": "DocType",
      "onboard": 1,
      "type": "Link"
     },
     {
      "dependencies": "",
      "hidden": 0,
      "is_query_report": 0,
      "label": "Web Form",
      "link_count": 0,
      "link_to": "Web Form",
      "link_type": "DocType",
      "onboard": 1,
      "type": "Link"
     },
     {
      "dependencies": "",
      "hidden": 0,
      "is_query_report": 0,
      "label": "Website Sidebar",
      "link_count": 0,
      "link_to": "Website Sidebar",
      "link_type": "DocType",
      "onboard": 0,
      "type": "Link"
     },
     {
      "dependencies": "",
      "hidden": 0,
      "is_query_report": 0,
      "label": "Website Slideshow",
      "link_count": 0,
      "link_to": "Website Slideshow",
      "link_type": "DocType",
      "onboard": 0,
      "type": "Link"
     },
     {
      "dependencies": "",
      "hidden": 0,
      "is_query_report": 0,
      "label": "Website Route Meta",
      "link_count": 0,
      "link_to": "Website Route Meta",
      "link_type": "DocType",
      "onboard": 0,
      "type": "Link"
     },
     {
      "hidden": 0,
      "icon": "website",
      "is_query_report": 0,
      "label": "Portal",
      "link_count": 0,
      "onboard": 0,
      "type": "Card Break"
     },
     {
      "dependencies": "",
      "hidden": 0,
      "is_query_report": 0,
      "label": "Portal Settings",
      "link_count": 0,
      "link_to": "Portal Settings",
      "link_type": "DocType",
      "onboard": 1,
      "type": "Link"
     },
     {
      "hidden": 0,
      "icon": "project",
      "is_query_report": 0,
      "label": "Knowledge Base",
      "link_count": 0,
      "onboard": 0,
      "type": "Card Break"
     },
     {
      "dependencies": "",
      "hidden": 0,
      "is_query_report": 0,
      "label": "Help Category",
      "link_count": 0,
      "link_to": "Help Category",
      "link_type": "DocType",
      "onboard": 0,
      "type": "Link"
     },
     {
      "dependencies": "",
      "hidden": 0,
      "is_query_report": 0,
      "label": "Help Article",
      "link_count": 0,
      "link_to": "Help Article",
      "link_type": "DocType",
      "onboard": 0,
      "type": "Link"
     }
    ],
    "modified": "2022-01-13 17:49:41.527194",
    "modified_by": "Administrator",
    "module": "Website",
    "name": "Website",
    "owner": "Administrator",
    "parent_page": "",
    "public": 1,
    "restrict_to_domain": "",
    "roles": [],
    "sequence_id": 28.0,
    "shortcuts": [
     {
      "color": "Green",
      "format": "{} Published",
      "label": "Blog Post",
      "link_to": "Blog Post",
      "stats_filter": "{\"published\":\"1\"}",
      "type": "DocType"
     },
     {
      "color": "Green",
      "format": "{} Active",
      "label": "Blogger",
      "link_to": "Blogger",
      "stats_filter": "{\"disabled\": 0}",
      "type": "DocType"
     },
     {
      "color": "Green",
      "format": "{} Published",
      "label": "Web Page",
      "link_to": "Web Page",
      "stats_filter": "{ \"published\": 1 }",
      "type": "DocType"
     },
     {
      "label": "Web Form",
      "link_to": "Web Form",
      "type": "DocType"
     },
     {
      "label": "Website Settings",
      "link_to": "Website Settings",
      "type": "DocType"
     }
    ],
    "title": "Website"
   }
