{
 "actions": [],
 "allow_rename": 1,
 "autoname": "field:label",
 "beta": 1,
 "creation": "2020-01-23 13:45:59.470592",
 "doctype": "DocType",
 "editable_grid": 1,
 "engine": "InnoDB",
 "field_order": [
  "label",
  "title",
  "sequence_id",
  "for_user",
  "parent_page",
  "module",
  "column_break_3",
  "icon",
  "restrict_to_domain",
  "hide_custom",
  "public",
  "content",
  "tab_break_2",
  "charts",
  "tab_break_15",
  "shortcuts",
  "tab_break_18",
  "links",
  "roles_tab",
  "roles"
 ],
 "fields": [
  {
   "fieldname": "label",
   "fieldtype": "Data",
   "label": "Name",
   "reqd": 1,
   "unique": 1
  },
  {
   "collapsible": 1,
   "collapsible_depends_on": "charts",
   "fieldname": "tab_break_2",
   "fieldtype": "Tab Break",
   "label": "Dashboards"
  },
  {
   "fieldname": "charts",
   "fieldtype": "Table",
   "label": "Charts",
   "options": "Workspace Chart"
  },
  {
   "fieldname": "shortcuts",
   "fieldtype": "Table",
   "label": "Shortcuts",
   "options": "Workspace Shortcut"
  },
  {
   "fieldname": "restrict_to_domain",
   "fieldtype": "Link",
   "label": "Restrict to Domain",
   "options": "Domain",
   "search_index": 1
  },
  {
   "fieldname": "module",
   "fieldtype": "Link",
   "in_list_view": 1,
   "in_standard_filter": 1,
   "label": "Module",
   "options": "Module Def"
  },
  {
   "fieldname": "column_break_3",
   "fieldtype": "Column Break"
  },
  {
   "collapsible": 1,
   "collapsible_depends_on": "shortcuts",
   "fieldname": "tab_break_15",
   "fieldtype": "Tab Break",
   "label": "Shortcuts"
  },
  {
   "collapsible": 1,
   "collapsible_depends_on": "links",
   "fieldname": "tab_break_18",
   "fieldtype": "Tab Break",
   "label": "Link Cards"
  },
  {
   "fieldname": "for_user",
   "fieldtype": "Data",
   "label": "For User",
   "read_only": 1
  },
  {
   "default": "0",
   "description": "Checking this will hide custom doctypes and reports cards in Links section",
   "fieldname": "hide_custom",
   "fieldtype": "Check",
   "label": "Hide Custom DocTypes and Reports"
  },
  {
   "fieldname": "icon",
   "fieldtype": "Icon",
   "label": "Icon"
  },
  {
   "fieldname": "links",
   "fieldtype": "Table",
   "label": "Links",
   "options": "Workspace Link"
  },
  {
   "default": "0",
   "fieldname": "public",
   "fieldtype": "Check",
   "in_list_view": 1,
   "in_standard_filter": 1,
   "label": "Public",
   "search_index": 1
  },
  {
   "fieldname": "title",
   "fieldtype": "Data",
   "label": "Title",
   "reqd": 1
  },
  {
   "fieldname": "parent_page",
   "fieldtype": "Data",
   "label": "Parent Page"
  },
  {
   "default": "[]",
   "fieldname": "content",
   "fieldtype": "Long Text",
   "hidden": 1,
   "label": "Content"
  },
  {
   "fieldname": "sequence_id",
   "fieldtype": "Float",
   "label": "Sequence Id"
  },
  {
   "fieldname": "roles",
   "fieldtype": "Table",
   "label": "Roles",
   "options": "Has Role"
  },
  {
   "fieldname": "roles_tab",
   "fieldtype": "Tab Break",
   "label": "Roles"
  }
 ],
 "in_create": 1,
 "links": [],
 "modified": "2022-01-27 12:06:13.111743",
 "modified_by": "Administrator",
 "module": "Desk",
 "name": "Workspace",
 "naming_rule": "By fieldname",
 "owner": "Administrator",
 "permissions": [
  {
   "create": 1,
   "delete": 1,
   "email": 1,
   "export": 1,
   "print": 1,
   "read": 1,
   "report": 1,
   "role": "Workspace Manager",
   "share": 1,
   "write": 1
  },
  {
   "email": 1,
   "export": 1,
   "print": 1,
   "read": 1,
   "report": 1,
   "role": "All",
   "share": 1
  }
 ],
 "sort_field": "modified",
 "sort_order": "DESC"
}
